Laboratório 5 - Relação entre Beleza e Pontuação dos professores
…
Laboratório 5 - Relação entre Beleza e Pontuação dos professores

Vários cursos universitários dão aos alunos a oportunidade de avaliar o curso e o professor de maneira anônima ao final do semestre. Contudo, o uso das avaliações dos alunos como um indicador da qualidade do curso e a eficácia do ensino é frequentemente criticado porque essas medidas podem refletir a influência de características não relacionadas à docência, tal como a aparência física do professor. Neste laboratório analisaremos os dados de um estudo que coletou dados para examinar a hipótese de que a beleza do professor influencia na percepção de competência dos alunos.

Os dados foram coletados a partir das avaliações discentes de final de semestre de uma grande amostra de professores da Universidade do Texas em Austin. Além disso, seis estudantes avaliaram a aparência física dos professores. O resultado é um banco de dados no qual cada linha contém diferentes disciplinas e cada coluna representa as variáveis sobre as disciplinas e os professores. As variáveis contidas nele são as seguintes:

avaliacao_professores = read_csv(here::here("data/evals.csv"))

avaliacao_professores

## # A tibble: 463 x 21
##    score rank   ethnicity gender language   age cls_perc_eval cls_did_eval
##    <dbl> <chr>  <chr>     <chr>  <chr>    <int>         <dbl>        <int>
##  1  4.70 tenur… minority  female english     36          55.8           24
##  2  4.10 tenur… minority  female english     36          68.8           86
##  3  3.90 tenur… minority  female english     36          60.8           76
##  4  4.80 tenur… minority  female english     36          62.6           77
##  5  4.60 tenur… not mino… male   english     59          85.0           17
##  6  4.30 tenur… not mino… male   english     59          87.5           35
##  7  2.80 tenur… not mino… male   english     59          88.6           39
##  8  4.10 tenur… not mino… male   english     51         100.            55
##  9  3.40 tenur… not mino… male   english     51          56.9          111
## 10  4.50 tenur… not mino… female english     40          87.0           40
## # ... with 453 more rows, and 13 more variables: cls_students <int>,
## #   cls_level <chr>, cls_profs <chr>, cls_credits <chr>,
## #   bty_f1lower <int>, bty_f1upper <int>, bty_f2upper <int>,
## #   bty_m1lower <int>, bty_m1upper <int>, bty_m2upper <int>,
## #   bty_avg <dbl>, pic_outfit <chr>, pic_color <chr>
…
